Project1_Sandbox
…
#Convert URL to tibble

url_to_tibble <- function(url = NULL) {
    raw_data <- httr::GET(url)
    parsed_data <- fromJSON(rawToChar(raw_data$content))
    return (as_tibble(parsed_data))
}

url_to_tibble("https://api.census.gov/data/2022/acs/acs1/pums?get=SEX,PWGTP,MAR&SCHL=24")

Warning: The `x` argument of `as_tibble.matrix()` must have unique column names if
`.name_repair` is omitted as of tibble 2.0.0.
ℹ Using compatibility `.name_repair`.

# A tibble: 44,080 × 4
   V1    V2    V3    V4   
   <chr> <chr> <chr> <chr>
 1 SEX   PWGTP MAR   SCHL 
 2 2     6     5     24   
 3 2     23    2     24   
 4 1     23    3     24   
 5 1     80    5     24   
 6 1     16    1     24   
 7 1     107   3     24   
 8 2     10    5     24   
 9 1     22    1     24   
10 2     127   5     24   
# ℹ 44,070 more rows
…
    #need to change column names of base_tib so that it matches the first row
    for (i in 1:n) {
      colnames(base_tib)[i] <- base_tib[[1,i]]
    }
    
    #now get rid of first row since they are not valid observations
    updated_tib <- base_tib[2:m, ]
    
    return (updated_tib)
}

url_to_tibble("https://api.census.gov/data/2022/acs/acs1/pums?get=SEX,PWGTP,MAR&SCHL=24")

# A tibble: 44,079 × 4
   SEX   PWGTP MAR   SCHL 
   <chr> <chr> <chr> <chr>
 1 2     6     5     24   
 2 2     23    2     24   
 3 1     23    3     24   
 4 1     80    5     24   
 5 1     16    1     24   
 6 1     107   3     24   
 7 2     10    5     24   
 8 1     22    1     24   
 9 2     127   5     24   
10 2     46    5     24   
# ℹ 44,069 more rows
…
