Project 1
…
#parse data using rawToChar() function 
parsed <- fromJSON(rawToChar(pums_info$content))

#turn parsed data into nice tibble
acs_estimates_info <- as_tibble(parsed)

Warning: The `x` argument of `as_tibble.matrix()` must have unique column names if
`.name_repair` is omitted as of tibble 2.0.0.
ℹ Using compatibility `.name_repair`.

acs_estimates_info

# A tibble: 44,080 × 4
   V1    V2    V3    V4   
   <chr> <chr> <chr> <chr>
 1 SEX   PWGTP MAR   SCHL 
 2 2     6     5     24   
 3 2     23    2     24   
 4 1     23    3     24   
 5 1     80    5     24   
 6 1     16    1     24   
 7 1     107   3     24   
 8 2     10    5     24   
 9 1     22    1     24   
10 2     127   5     24   
# ℹ 44,070 more rows

This is not quite what we want because the column names are “V1”, “V2”, “V3”, “V4”, default names, and the first row of observations are “SEX”, “PWGTP”, “MAR”, “SCHL”, are what should be the columns names. The following code will fix this:

row_length <- nrow(acs_estimates_info)

acs_estimates_info_updated <- tibble("SEX" = acs_estimates_info$V1[2:row_length], "PWGTP" = acs_estimates_info$V2[2:row_length], "MAR" = acs_estimates_info$V3[2:row_length], "SCHL" = acs_estimates_info$V4[2:row_length])

acs_estimates_info_updated

# A tibble: 44,079 × 4
   SEX   PWGTP MAR   SCHL 
   <chr> <chr> <chr> <chr>
 1 2     6     5     24   
 2 2     23    2     24   
 3 1     23    3     24   
 4 1     80    5     24   
 5 1     16    1     24   
 6 1     107   3     24   
 7 2     10    5     24   
 8 1     22    1     24   
 9 2     127   5     24   
10 2     46    5     24   
# ℹ 44,069 more rows
…
